{
	"info": {
		"_postman_id": "4d16d9c1-09df-4dbc-a5a4-d071f9700193",
		"name": "container Emp",
		"schema": "https://schema.getpostman.com/json/collection/v2.1.0/collection.json"
	},
	"item": [
		{
			"name": "add user",
			"request": {
				"method": "POST",
				"header": [],
				"body": {
					"mode": "raw",
					"raw": "{\r\n    \"name\":\"prajwal\",\r\n     \"salary\":\"20000\",\r\n     \"age\":\"21\"\r\n     \r\n}",
					"options": {
						"raw": {
							"language": "json"
						}
					}
				},
				"url": {
					"raw": "http://localhost:4000/emp/add",
					"protocol": "http",
					"host": [
						"localhost"
					],
					"port": "4000",
					"path": [
						"emp",
						"add"
					]
				}
			},
			"response": []
		},
		{
			"name": "delete user",
			"request": {
				"method": "DELETE",
				"header": [],
				"url": {
					"raw": "http://localhost:4000/emp/remove/prajwal",
					"protocol": "http",
					"host": [
						"localhost"
					],
					"port": "4000",
					"path": [
						"emp",
						"remove",
						"prajwal"
					]
				}
			},
			"response": []
		},
		{
			"name": "update salary",
			"request": {
				"method": "PUT",
				"header": [],
				"body": {
					"mode": "raw",
					"raw": "{\r\n    \"salary\":\"30000\"\r\n}",
					"options": {
						"raw": {
							"language": "json"
						}
					}
				},
				"url": {
					"raw": "http://localhost:4000/emp/update/prajwal",
					"protocol": "http",
					"host": [
						"localhost"
					],
					"port": "4000",
					"path": [
						"emp",
						"update",
						"prajwal"
					]
				}
			},
			"response": []
		},
		{
			"name": "get data",
			"request": {
				"method": "GET",
				"header": [],
				"url": {
					"raw": "http://localhost:4000/user/prajwal",
					"protocol": "http",
					"host": [
						"localhost"
					],
					"port": "4000",
					"path": [
						"user",
						"prajwal"
					]
				}
			},
			"response": []
		}
	]
}